Rename columns from API results to work with gnomeR functions — rename_columns • gnomeR
…
rename_columns(df_to_check)

    Arguments

    df_to_check
a data frame to check and recode names as needed

    Value

a renamed data frame

    Examples

rename_columns(df_to_check = gnomeR::mutations)
#> # A tibble: 725 × 29
#>    hugo_symbol entrez_g…¹ uniqu…² uniqu…³ molec…⁴ sampl…⁵ patie…⁶ study…⁷ center
#>    <chr>            <int> <chr>   <chr>   <chr>   <chr>   <chr>   <chr>   <chr> 
#>  1 PARP1              142 UC0wMD… UC0wMD… prad_m… P-0001… P-0001… prad_m… NA    
#>  2 PARP1              142 UC0wMD… UC0wMD… prad_m… P-0001… P-0001… prad_m… NA    
#>  3 PARP1              142 UC0wMD… UC0wMD… prad_m… P-0001… P-0001… prad_m… NA    
#>  4 AKT1               207 UC0wMD… UC0wMD… prad_m… P-0001… P-0001… prad_m… MSKCC 
#>  5 AKT1               207 UC0wMD… UC0wMD… prad_m… P-0001… P-0001… prad_m… MSKCC 
#>  6 AKT1               207 UC0wMD… UC0wMD… prad_m… P-0005… P-0005… prad_m… MSKCC 
#>  7 ALK                238 UC0wMD… UC0wMD… prad_m… P-0001… P-0001… prad_m… MSKCC 
#>  8 ALK                238 UC0wMD… UC0wMD… prad_m… P-0004… P-0004… prad_m… MSKCC 
#>  9 ALK                238 UC0wMD… UC0wMD… prad_m… P-0001… P-0001… prad_m… MSKCC 
#> 10 ALK                238 UC0wMD… UC0wMD… prad_m… P-0002… P-0002… prad_m… MSKCC 
#> # … with 715 more rows, 20 more variables: mutation_status <chr>,
#> #   validation_status <chr>, start_position <int>, end_position <int>,
#> #   reference_allele <chr>, hgv_sp_short <chr>, variant_classification <chr>,
#> #   functionalImpactScore <chr>, fisValue <dbl>, linkXvar <chr>, linkPdb <chr>,
#> #   linkMsa <chr>, ncbi_build <chr>, variant_type <chr>, keyword <chr>,
#> #   chromosome <chr>, allele <chr>, refseqMrnaId <chr>,
#> #   protein_pos_start <int>, protein_pos_end <int>, and abbreviated variable …
rename_columns(df_to_check = gnomeR::sv)
#> # A tibble: 94 × 44
#>    uniqueSampl…¹ uniqu…² molec…³ sampl…⁴ patie…⁵ study…⁶ site_…⁷ site_…⁸ site_…⁹
#>    <chr>         <chr>   <chr>   <chr>   <chr>   <chr>     <int> <chr>   <chr>  
#>  1 UC0wMDAyMzA0… UC0wMD… prad_m… P-0002… P-0002… prad_m…    6462 SHBG    NA     
#>  2 UC0wMDAyMzA0… UC0wMD… prad_m… P-0002… P-0002… prad_m…    7157 TP53    NA     
#>  3 UC0wMDAzOTI1… UC0wMD… prad_m… P-0003… P-0003… prad_m…    5925 RB1     NA     
#>  4 UC0wMDAyMzY0… UC0wMD… prad_m… P-0002… P-0002… prad_m…    2078 ERG     NA     
#>  5 UC0wMDAyMzc1… UC0wMD… prad_m… P-0002… P-0002… prad_m…    2078 ERG     NA     
#>  6 UC0wMDAzOTA4… UC0wMD… prad_m… P-0003… P-0003… prad_m…    2078 ERG     NA     
#>  7 UC0wMDAyNTE2… UC0wMD… prad_m… P-0002… P-0002… prad_m…     673 BRAF    NA     
#>  8 UC0wMDAyNTE2… UC0wMD… prad_m… P-0002… P-0002… prad_m…    2078 ERG     NA     
#>  9 UC0wMDAwMzc3… UC0wMD… prad_m… P-0000… P-0000… prad_m…    5927 KDM5A   NA     
#> 10 UC0wMDAwMzc3… UC0wMD… prad_m… P-0000… P-0000… prad_m…    8284 KDM5D   NA     
#> # … with 84 more rows, 35 more variables: site_1_chromosome <chr>,
#> #   site_1_position <int>, site_1_contig <chr>, site_1_region <chr>,
#> #   site_1_region_number <int>, site_1_description <chr>,
#> #   site_2_entrez_gene_id <int>, site_2_hugo_symbol <chr>,
#> #   site_2_ensembl_transcript_id <chr>, site_2_chromosome <chr>,
#> #   site_2_position <int>, site_2_contig <chr>, site_2_region <chr>,
#> #   site_2_region_number <int>, site_2_description <chr>, …
…
