API-tutorial • gnomeR
…
TCGA database

Even though cBioPortal mainly focuses on IMPACT data, other genomic studies are also available on it. Particurlarly the The Cancer Genome Atlas (TCGA) database, which whole-exome sequenced large cohorts of 33 different cancer sites. This dataset is a public ressource and does not require a token to be accessed through the gnomeR API, we will thus use it as an example for the functionalities of the API. Additionally to having access to mutational and copy number alteration data, cBioPortal also grants us access to other data types such as RNA-seq or RPPMs. In this section we will show how the user can use the API to retrieve this data. Note that the list of samples, cancer sites and genes available in tcga_samples and tcga_genes respectively.

Mutations

To retrieve the TCGA mutational data the user should set the arguments mutations to TRUE and database to “tcga”:

df <- get_genetics(sample_ids =  c("TCGA-17-Z023-01","TCGA-02-0003-01","TCGA-02-0055-01"),
             mutations = TRUE,fusions = FALSE, cna = FALSE,
             database = "tcga")

df$mut
#> # A tibble: 28 x 37
#>    uniqueSampleKey uniquePatientKey molecularProfil… Tumor_Sample_Ba… patientId
#>    <chr>           <chr>            <chr>            <chr>            <chr>    
#>  1 VENHQS0wMi0wMD… VENHQS0wMi0wMDA… gbm_tcga_pan_ca… TCGA-02-0003-01  TCGA-02-…
#>  2 VENHQS0wMi0wMD… VENHQS0wMi0wMDA… gbm_tcga_pan_ca… TCGA-02-0003-01  TCGA-02-…
#>  3 VENHQS0wMi0wMD… VENHQS0wMi0wMDA… gbm_tcga_pan_ca… TCGA-02-0003-01  TCGA-02-…
#>  4 VENHQS0wMi0wMD… VENHQS0wMi0wMDA… gbm_tcga_pan_ca… TCGA-02-0003-01  TCGA-02-…
#>  5 VENHQS0wMi0wMD… VENHQS0wMi0wMDA… gbm_tcga_pan_ca… TCGA-02-0003-01  TCGA-02-…
#>  6 VENHQS0wMi0wMD… VENHQS0wMi0wMDA… gbm_tcga_pan_ca… TCGA-02-0003-01  TCGA-02-…
#>  7 VENHQS0wMi0wMD… VENHQS0wMi0wMDU… gbm_tcga_pan_ca… TCGA-02-0055-01  TCGA-02-…
#>  8 VENHQS0wMi0wMD… VENHQS0wMi0wMDU… gbm_tcga_pan_ca… TCGA-02-0055-01  TCGA-02-…
#>  9 VENHQS0wMi0wMD… VENHQS0wMi0wMDU… gbm_tcga_pan_ca… TCGA-02-0055-01  TCGA-02-…
#> 10 VENHQS0xNy1aMD… VENHQS0xNy1aMDI… luad_tcga_pan_c… TCGA-17-Z023-01  TCGA-17-…
#> # … with 18 more rows, and 32 more variables: entrezGeneId <int>,
#> #   studyId <chr>, center <chr>, Mutation_Status <chr>, validationStatus <chr>,
#> #   tumorAltCount <int>, tumorRefCount <int>, normalAltCount <int>,
#> #   normalRefCount <int>, startPosition <int>, endPosition <int>,
#> #   referenceAllele <chr>, proteinChange <chr>, Variant_Classification <chr>,
#> #   functionalImpactScore <chr>, fisValue <dbl>, linkXvar <chr>, linkPdb <chr>,
#> #   linkMsa <chr>, ncbiBuild <chr>, Variant_Type <chr>, keyword <chr>,
#> #   driverFilter <chr>, driverFilterAnnotation <chr>, driverTiersFilter <chr>,
#> #   driverTiersFilterAnnotation <chr>, chr <chr>, variantAllele <chr>,
#> #   refseqMrnaId <chr>, proteinPosStart <int>, proteinPosEnd <int>,
#> #   Hugo_Symbol <chr>

Fusions

df <- get_genetics(sample_ids = as.character(tcga_samples$patient_id[!is.na(tcga_samples$Cancer_Code)][1:100]),
                   mutations = TRUE,fusions = TRUE, cna = FALSE,
                   database = "tcga")

df$mut %>%
  filter(Variant_Classification == "Fusion")
#> # A tibble: 26 x 37
#>    uniqueSampleKey uniquePatientKey molecularProfil… Tumor_Sample_Ba… patientId
#>    <chr>           <chr>            <chr>            <chr>            <chr>    
#>  1 VENHQS0wMi0yND… VENHQS0wMi0yNDg… gbm_tcga_pan_ca… TCGA-02-2485-01  TCGA-02-…
#>  2 VENHQS0wNC0xMz… VENHQS0wNC0xMzQ… ov_tcga_pan_can… TCGA-04-1341-01  TCGA-04-…
#>  3 VENHQS0wNC0xMz… VENHQS0wNC0xMzQ… ov_tcga_pan_can… TCGA-04-1348-01  TCGA-04-…
#>  4 VENHQS0wNC0xMz… VENHQS0wNC0xMzU… ov_tcga_pan_can… TCGA-04-1356-01  TCGA-04-…
#>  5 VENHQS0wNC0xMz… VENHQS0wNC0xMzU… ov_tcga_pan_can… TCGA-04-1357-01  TCGA-04-…
#>  6 VENHQS0wNC0xMz… VENHQS0wNC0xMzY… ov_tcga_pan_can… TCGA-04-1362-01  TCGA-04-…
#>  7 VENHQS0wNC0xMz… VENHQS0wNC0xMzY… ov_tcga_pan_can… TCGA-04-1362-01  TCGA-04-…
#>  8 VENHQS0wNS00Mj… VENHQS0wNS00MjQ… luad_tcga_pan_c… TCGA-05-4244-01  TCGA-05-…
#>  9 VENHQS0wNS00Mj… VENHQS0wNS00MjU… luad_tcga_pan_c… TCGA-05-4250-01  TCGA-05-…
#> 10 VENHQS0wNS00Mz… VENHQS0wNS00Mzg… luad_tcga_pan_c… TCGA-05-4382-01  TCGA-05-…
#> # … with 16 more rows, and 32 more variables: entrezGeneId <int>,
#> #   studyId <chr>, center <chr>, Mutation_Status <chr>, validationStatus <chr>,
#> #   tumorAltCount <int>, tumorRefCount <int>, normalAltCount <int>,
#> #   normalRefCount <int>, startPosition <int>, endPosition <int>,
#> #   referenceAllele <chr>, proteinChange <chr>, Variant_Classification <chr>,
#> #   functionalImpactScore <chr>, fisValue <dbl>, linkXvar <chr>, linkPdb <chr>,
#> #   linkMsa <chr>, ncbiBuild <chr>, Variant_Type <chr>, keyword <chr>,
#> #   driverFilter <chr>, driverFilterAnnotation <chr>, driverTiersFilter <chr>,
#> #   driverTiersFilterAnnotation <chr>, chr <chr>, variantAllele <chr>,
…
Segmentation file

The copy-number alterations data we have covered up to now is a discrete estimation of the alterations that occured. There however exist more nuanced and accurate data for copy-number alterations observed in a tumor. In gnomeR we include an example of segmentation file and relevant functions from the facets package that provides an allele-specific copy number and clonal heterogeneity analysis tool for high-throughput DNA sequencing. We show below how to download it from the API in gnomeR.

df <- get_genetics(sample_ids =  c("TCGA-17-Z023-01","TCGA-02-0003-01","TCGA-02-0055-01"),
             mutations = FALSE,fusions = FALSE, cna = FALSE, seg = TRUE,
             database = "tcga")

df$seg
#> # A tibble: 162 x 10
#>    uniqueSampleKey uniquePatientKey patientId  start    end segmentMean studyId
#>    <chr>           <chr>            <chr>      <int>  <int>       <dbl> <chr>  
#>  1 VENHQS0wMi0wMD… VENHQS0wMi0wMDA… TCGA-02-… 3.22e6 1.61e7      0.063  gbm_tc…
#>  2 VENHQS0wMi0wMD… VENHQS0wMi0wMDA… TCGA-02-… 1.61e7 1.61e7     -1.58   gbm_tc…
#>  3 VENHQS0wMi0wMD… VENHQS0wMi0wMDA… TCGA-02-… 1.61e7 1.80e8      0.0669 gbm_tc…
#>  4 VENHQS0wMi0wMD… VENHQS0wMi0wMDA… TCGA-02-… 1.80e8 1.80e8      0.582  gbm_tc…
#>  5 VENHQS0wMi0wMD… VENHQS0wMi0wMDA… TCGA-02-… 1.80e8 1.80e8      1.56   gbm_tc…
#>  6 VENHQS0wMi0wMD… VENHQS0wMi0wMDA… TCGA-02-… 1.80e8 1.81e8      0.596  gbm_tc…
#>  7 VENHQS0wMi0wMD… VENHQS0wMi0wMDA… TCGA-02-… 1.81e8 2.48e8      0.0627 gbm_tc…
#>  8 VENHQS0wMi0wMD… VENHQS0wMi0wMDA… TCGA-02-… 4.84e5 2.37e8      0.0517 gbm_tc…
#>  9 VENHQS0wMi0wMD… VENHQS0wMi0wMDA… TCGA-02-… 2.37e8 2.37e8      0.576  gbm_tc…
#> 10 VENHQS0wMi0wMD… VENHQS0wMi0wMDA… TCGA-02-… 2.37e8 2.42e8      0.0454 gbm_tc…
#> # … with 152 more rows, and 3 more variables: sampleId <chr>, chromosome <chr>,
#> #   numberOfProbes <int>
…
