Data-processing • gnomeR
…
In the follwing sections we will present examples to process each of the datatypes in cbioportal.

Processing genetic data

Mutations

The most commmon type of genetic features used in genomic studies at MSKCC. The IMPACT sequencing panel consist of a curated list of genes that are known to have cancer related properties when altered. You can find a complete list of these genes and which platform they were added on in the impact_genes datafile. Note that the MAF files provided through the API embedded in this package and the one provided through raw download on the website are slightly different and we will thus present examples using both these datasets.

Processing raw mutation data

We included in gnomeR an example of raw downloaded MAF file directly from the website in the mut dataset. We show here an example selecting a random subset of 100 samples in the mut dataset:

as_tibble(mut)
#> # A tibble: 3,179 x 45
#>    Hugo_Symbol Entrez_Gene_Id Center NCBI_Build Chromosome Start_Position
#>    <fct>       <lgl>          <lgl>  <fct>      <fct>               <int>
#>  1 TP53        NA             NA     GRCh37     17                7577539
#>  2 EZH2        NA             NA     GRCh37     7               148523605
#>  3 MDM2        NA             NA     GRCh37     12               69222656
#>  4 IGF1R       NA             NA     GRCh37     15               99486153
#>  5 KEAP1       NA             NA     GRCh37     19               10602303
#>  6 KDM5C       NA             NA     GRCh37     X                53223386
#>  7 KRAS        NA             NA     GRCh37     12               25398284
#>  8 TERT        NA             NA     GRCh37     5                 1295228
#>  9 MAP2K1      NA             NA     GRCh37     15               66729153
#> 10 NCOR1       NA             NA     GRCh37     17               16046949
#> # … with 3,169 more rows, and 39 more variables: End_Position <int>,
#> #   Strand <fct>, Consequence <fct>, Variant_Classification <fct>,
#> #   Variant_Type <fct>, Reference_Allele <fct>, Tumor_Seq_Allele1 <fct>,
#> #   Tumor_Seq_Allele2 <fct>, dbSNP_RS <lgl>, dbSNP_Val_Status <lgl>,
#> #   Tumor_Sample_Barcode <fct>, Matched_Norm_Sample_Barcode <lgl>,
#> #   Match_Norm_Seq_Allele1 <lgl>, Match_Norm_Seq_Allele2 <lgl>,
#> #   Tumor_Validation_Allele1 <lgl>, Tumor_Validation_Allele2 <lgl>,
#> #   Match_Norm_Validation_Allele1 <lgl>, Match_Norm_Validation_Allele2 <lgl>,
#> #   Verification_Status <lgl>, Validation_Status <lgl>, Mutation_Status <chr>,
#> #   Sequencing_Phase <lgl>, Sequence_Source <lgl>, Validation_Method <lgl>,
#> #   Score <lgl>, BAM_File <lgl>, Sequencer <lgl>, t_ref_count <int>,
#> #   t_alt_count <int>, n_ref_count <lgl>, n_alt_count <lgl>, HGVSc <fct>,
#> #   HGVSp <fct>, HGVSp_Short <fct>, Transcript_ID <fct>, RefSeq <fct>,
#> #   Protein_position <int>, Codons <fct>, Hotspot <int>
samples <- as.character(unique(mut$Tumor_Sample_Barcode))[sample(1:length(unique(mut$Tumor_Sample_Barcode)), 100, replace=FALSE)]
df <- binmat(patients = samples ,maf = mut)
as_tibble(df)
#> # A tibble: 100 x 216
#>     TP53  EZH2  MDM2 IGF1R KEAP1 KDM5C  KRAS  TERT MAP2K1 NCOR1  AKT1 ARID1A
#>    <dbl> <dbl> <dbl> <dbl> <dbl> <dbl> <dbl> <dbl>  <dbl> <dbl> <dbl>  <dbl>
#>  1     1     0     0     0     0     0     1     0      0     0     0      0
#>  2     1     0     0     0     0     0     0     1      0     0     0      0
#>  3     0     0     0     0     0     0     0     1      0     0     0      0
#>  4     0     0     0     0     0     0     1     0      0     0     0      0
#>  5     0     0     0     0     0     0     0     1      0     0     0      0
#>  6     0     0     0     0     0     0     0     1      0     0     0      0
#>  7     0     0     0     0     0     0     0     0      0     0     0      0
#>  8     1     0     0     0     0     0     0     0      0     0     0      0
#>  9     0     0     0     0     0     0     0     0      0     0     0      0
#> 10     0     0     0     0     0     0     0     0      0     0     0      0
#> # … with 90 more rows, and 204 more variables: CTNNB1 <dbl>, PDPK1 <dbl>,
#> #   CTCF <dbl>, CDH1 <dbl>, EGFR <dbl>, RPS6KA4 <dbl>, AKT3 <dbl>, NTRK3 <dbl>,
#> #   ATRX <dbl>, STAG2 <dbl>, EPHA3 <dbl>, RECQL4 <dbl>, CREBBP <dbl>,
#> #   DOT1L <dbl>, PIK3CA <dbl>, FBXW7 <dbl>, APC <dbl>, ETV1 <dbl>, AXIN1 <dbl>,
#> #   SOX9 <dbl>, DICER1 <dbl>, FGFR2 <dbl>, CD276 <dbl>, MPL <dbl>,
#> #   RAD54L <dbl>, FLT4 <dbl>, ARID1B <dbl>, FGFR1 <dbl>, WT1 <dbl>, MLL <dbl>,
#> #   TBX3 <dbl>, FLT3 <dbl>, RNF43 <dbl>, STK11 <dbl>, PTPRS <dbl>,
#> #   DNMT3B <dbl>, MYD88 <dbl>, SETD2 <dbl>, SMAD3 <dbl>, RPTOR <dbl>,
#> #   SMAD2 <dbl>, AXIN2 <dbl>, CDK6 <dbl>, JAK3 <dbl>, ESR1 <dbl>, PIK3CB <dbl>,
…
Note that by default in the situation above the outputted dataframe is a binary matrix made from all types of mutations and adjusting the features for the platform they were added on. Thus all samples that were sequenced on the original platform have NA’s in the cells of for features that were added on subsequent platforms. In the case where the user plans on using methods that do not accept missing values, the spe.plat argument can be changed to FALSE to replace all the NA’s mentioned above to 0. We show below such an example, we moreover make this example including only SNPs (including silent mutations):

df <- binmat(patients = samples ,maf = mut, SNP.only = TRUE, include.silent = TRUE, spe.plat = FALSE)
#> Warning in createbin.maf(obj = maf, patients = patients, mut.type = mut.type, :
#> Some patients did not have any mutations found in the MAF file.P-0003319-T01-
#> IM5,P-0004637-T01-IM5,P-0001585-T01-IM3,P-0006755-T01-IM5
as_tibble(df)
#> # A tibble: 100 x 201
#>     TP53  EZH2  MDM2 IGF1R KEAP1 KDM5C  KRAS  TERT MAP2K1 NCOR1  AKT1 CTNNB1
#>    <dbl> <dbl> <dbl> <dbl> <dbl> <dbl> <dbl> <dbl>  <dbl> <dbl> <dbl>  <dbl>
#>  1     1     0     0     0     0     0     1     0      0     0     0      1
#>  2     1     0     0     0     0     0     0     0      0     0     0      0
#>  3     0     0     0     0     0     0     0     1      0     0     0      0
#>  4     0     0     0     0     0     0     1     0      0     0     0      0
#>  5     0     0     0     0     0     0     0     1      0     0     0      0
#>  6     0     0     0     0     0     0     0     1      0     0     0      0
#>  7     0     0     0     0     0     0     0     0      0     0     0      0
#>  8     1     0     0     0     0     0     0     0      0     0     0      0
#>  9     0     0     0     0     0     0     0     0      0     0     0      0
#> 10     0     0     0     0     0     0     0     0      0     0     0      0
#> # … with 90 more rows, and 189 more variables: PDPK1 <dbl>, EGFR <dbl>,
#> #   RPS6KA4 <dbl>, AKT3 <dbl>, NTRK3 <dbl>, ATRX <dbl>, STAG2 <dbl>,
#> #   EPHA3 <dbl>, RECQL4 <dbl>, CREBBP <dbl>, DOT1L <dbl>, PIK3CA <dbl>,
#> #   FBXW7 <dbl>, APC <dbl>, ETV1 <dbl>, AXIN1 <dbl>, SOX9 <dbl>, DICER1 <dbl>,
#> #   FGFR2 <dbl>, CD276 <dbl>, MPL <dbl>, RAD54L <dbl>, FLT4 <dbl>,
#> #   ARID1B <dbl>, FGFR1 <dbl>, WT1 <dbl>, MLL <dbl>, TBX3 <dbl>, FLT3 <dbl>,
#> #   RNF43 <dbl>, STK11 <dbl>, PTPRS <dbl>, DNMT3B <dbl>, MYD88 <dbl>,
#> #   SETD2 <dbl>, SMAD3 <dbl>, RPTOR <dbl>, SMAD2 <dbl>, CDK6 <dbl>, JAK3 <dbl>,
#> #   ESR1 <dbl>, CCND1 <dbl>, SPOP <dbl>, RB1 <dbl>, ERBB2 <dbl>, PTPRD <dbl>,
…
In this section we show the same examples as above but using the data downloaded through the API:

dat <- get_genetics(sample_ids = samples, fusions = FALSE, cna = FALSE)
#> [1] "https://cbioportal.mskcc.org/api/molecular-profiles/mskimpact_mutations/mutations/fetch?"
df <- binmat(maf = dat$mut)
#> Warning in createbin.maf(obj = maf, patients = patients, mut.type = mut.type, :
#> KMT2D has been recoded to MLL2
#> Warning in createbin.maf(obj = maf, patients = patients, mut.type = mut.type, :
#> KMT2C has been recoded to MLL3
#> Warning in createbin.maf(obj = maf, patients = patients, mut.type = mut.type, :
#> Some patients did not have any mutations found in the MAF file.P-0000788-
#> T01-IM3,P-0010898-T01-IM5,P-0008071-T01-IM5,P-0007306-T01-IM5,P-0001181-T01-
#> IM3,P-0001942-T03-IM3
as_tibble(df)
#> # A tibble: 99 x 204
#>     ABL1  AKT1   ALK ALOX12B   APC BIRC3    AR  ARAF ZFHX3   ATM  ATRX   AXL
#>    <dbl> <dbl> <dbl>   <dbl> <dbl> <dbl> <dbl> <dbl> <dbl> <dbl> <dbl> <dbl>
#>  1     1     0     0       0     0     0     0     0     0     0     0     0
#>  2     1     0     1       0     0     1     0     0     0     0     0     0
#>  3     0     1     0       0     0    NA     0     0    NA     0     0     0
#>  4     0     1     0       0     0     0     0     0     0     0     0     0
#>  5     0     1     0       0     0     0     0     0     0     0     0     0
#>  6     0     0     1       0     0    NA     0     0    NA     0     0     0
#>  7     0     0     0       1     0     0     0     0     0     0     0     0
#>  8     0     0     0       0     1    NA     0     0    NA     0     0     0
#>  9     0     0     0       0     1    NA     0     0    NA     0     0     0
#> 10     0     0     0       0     1    NA     0     0    NA     0     0     0
#> # … with 89 more rows, and 192 more variables: B2M <dbl>, CCND1 <dbl>,
#> #   BCL6 <dbl>, PRDM1 <dbl>, BLM <dbl>, BRCA1 <dbl>, BRAF <dbl>, BRCA2 <dbl>,
#> #   BTK <dbl>, CBFB <dbl>, CBL <dbl>, CCND2 <dbl>, CDH1 <dbl>, CDK4 <dbl>,
#> #   CDK6 <dbl>, CDKN2A <dbl>, CREBBP <dbl>, CSF3R <dbl>, CTNNB1 <dbl>,
#> #   DAXX <dbl>, DNMT3B <dbl>, EGFR <dbl>, EP300 <dbl>, EPHA3 <dbl>,
#> #   EPHA5 <dbl>, EPHA7 <dbl>, EPHB1 <dbl>, ERBB2 <dbl>, ERBB3 <dbl>,
#> #   ERBB4 <dbl>, ERCC2 <dbl>, ESR1 <dbl>, ETV1 <dbl>, EZH2 <dbl>, FANCA <dbl>,
#> #   FANCC <dbl>, FAT1 <dbl>, FGF4 <dbl>, FGFR1 <dbl>, FGFR3 <dbl>, FGFR2 <dbl>,
#> #   FGFR4 <dbl>, FOXO1 <dbl>, FLT3 <dbl>, FLT4 <dbl>, GATA2 <dbl>, GATA3 <dbl>,
…
Similarly,

df <- binmat(maf = dat$mut, SNP.only = TRUE, include.silent = TRUE, spe.plat = FALSE)
#> Warning in createbin.maf(obj = maf, patients = patients, mut.type = mut.type, :
#> KMT2D has been recoded to MLL2
#> Warning in createbin.maf(obj = maf, patients = patients, mut.type = mut.type, :
#> KMT2C has been recoded to MLL3
#> Warning in createbin.maf(obj = maf, patients = patients, mut.type = mut.type, :
#> Some patients did not have any mutations found in the MAF file.P-0000788-
#> T01-IM3,P-0010898-T01-IM5,P-0008071-T01-IM5,P-0007306-T01-IM5,P-0001181-
#> T01-IM3,P-0001942-T03-IM3,P-0003319-T01-IM5,P-0006755-T01-IM5,P-0004637-T01-
#> IM5,P-0001585-T01-IM3
as_tibble(df)
#> # A tibble: 99 x 192
#>     ABL1  AKT1   ALK ALOX12B   APC BIRC3    AR  ARAF ZFHX3   ATM  ATRX   AXL
#>    <dbl> <dbl> <dbl>   <dbl> <dbl> <dbl> <dbl> <dbl> <dbl> <dbl> <dbl> <dbl>
#>  1     1     0     0       0     0     0     0     0     0     0     0     0
#>  2     0     0     1       0     0     0     0     0     0     0     0     0
#>  3     0     1     0       0     0     0     0     0     0     0     0     0
#>  4     0     1     0       0     0     0     0     0     0     0     0     0
#>  5     0     0     0       0     0     0     0     0     0     0     0     0
#>  6     0     0     1       0     0     0     0     0     0     0     0     0
#>  7     0     0     0       1     0     0     0     0     0     0     0     0
#>  8     0     0     0       0     1     0     0     0     0     0     0     0
#>  9     0     0     0       0     1     0     0     0     0     0     0     0
#> 10     0     0     0       0     0     0     0     0     0     0     0     0
#> # … with 89 more rows, and 180 more variables: B2M <dbl>, CCND1 <dbl>,
#> #   BCL6 <dbl>, PRDM1 <dbl>, BLM <dbl>, BRCA1 <dbl>, BRAF <dbl>, BRCA2 <dbl>,
#> #   BTK <dbl>, CBL <dbl>, CCND2 <dbl>, CDH1 <dbl>, CDK4 <dbl>, CDK6 <dbl>,
#> #   CDKN2A <dbl>, CREBBP <dbl>, CSF3R <dbl>, CTNNB1 <dbl>, DAXX <dbl>,
#> #   DNMT3B <dbl>, EGFR <dbl>, EP300 <dbl>, EPHA3 <dbl>, EPHA5 <dbl>,
#> #   EPHA7 <dbl>, EPHB1 <dbl>, ERBB2 <dbl>, ERBB3 <dbl>, ERBB4 <dbl>,
#> #   ERCC2 <dbl>, ESR1 <dbl>, ETV1 <dbl>, EZH2 <dbl>, FANCA <dbl>, FANCC <dbl>,
#> #   FAT1 <dbl>, FGF4 <dbl>, FGFR1 <dbl>, FGFR3 <dbl>, FGFR2 <dbl>, FGFR4 <dbl>,
#> #   FOXO1 <dbl>, FLT3 <dbl>, FLT4 <dbl>, GATA2 <dbl>, GATA3 <dbl>, GNAQ <dbl>,
…
