gnomeR for IMPACT data • gnomeR
…
Requirements

gnomeR requires the following packages - ComplexHeatmap, iClusterPlus, cluster (installed with gnomeR).

library(gnomeR)

Introduction

gnomeR is a R package that aims to process and analyze genetic data from cBioPortal. We include in this package the mutation, copy number alteration (CNA), fusion and clin.patientsical information of all publicly available data from cBioPortal.

Mutations

as.tbl(mut) %>% select(Tumor_Sample_Barcode,Hugo_Symbol,Variant_Classification,Variant_Type,Reference_Allele,Tumor_Seq_Allele2)
#> # A tibble: 3,179 x 6
#>    Tumor_Sample_Ba… Hugo_Symbol Variant_Classif… Variant_Type Reference_Allele
#>    <fct>            <fct>       <fct>            <fct>        <fct>           
#>  1 P-0000062-T01-I… TP53        Missense_Mutati… SNP          G               
#>  2 P-0000062-T01-I… EZH2        Missense_Mutati… SNP          G               
#>  3 P-0000062-T01-I… MDM2        Missense_Mutati… SNP          A               
#>  4 P-0000062-T01-I… IGF1R       Missense_Mutati… SNP          T               
#>  5 P-0000062-T01-I… KEAP1       Missense_Mutati… SNP          G               
#>  6 P-0000062-T01-I… KDM5C       Missense_Mutati… SNP          G               
#>  7 P-0000065-T01-I… KRAS        Missense_Mutati… SNP          C               
#>  8 P-0000065-T01-I… TERT        5'Flank          SNP          G               
#>  9 P-0000065-T01-I… MAP2K1      Missense_Mutati… SNP          T               
#> 10 P-0000065-T01-I… NCOR1       Nonsense_Mutati… SNP          C               
#> # … with 3,169 more rows, and 1 more variable: Tumor_Seq_Allele2 <fct>
…
as.tbl(cna[1:5,1:5])
#> # A tibble: 5 x 5
#>   Hugo_Symbol P.0001890.T01.I… P.0000569.T01.I… P.0000795.T01.I…
#>   <fct>                  <int>            <int>            <int>
#> 1 ABL1                       0                0                0
#> 2 ACVR1                      0                0                0
#> 3 AKT1                       0                0                0
#> 4 AKT2                       0                0                0
#> 5 AKT3                       0                0                0
#> # … with 1 more variable: P.0002060.T01.IM3 <int>

Fusions

as.tbl(fusion) %>% select(Tumor_Sample_Barcode,Hugo_Symbol,Fusion)
#> # A tibble: 127 x 3
#>    Tumor_Sample_Barcode Hugo_Symbol Fusion             
#>    <fct>                <fct>       <fct>              
#>  1 P-0010011-T01-IM5    PAX8        PAX8-intragenic    
#>  2 P-0010977-T01-IM5    TFE3        ASPSCR1-TFE3 fusion
#>  3 P-0010977-T01-IM5    ASPSCR1     ASPSCR1-TFE3 fusion
#>  4 P-0010398-T01-IM5    BRAF        OSBPL9-BRAF fusion 
#>  5 P-0010398-T01-IM5    OSBPL9      OSBPL9-BRAF fusion 
#>  6 P-0010177-T01-IM5    ALK         EML4-ALK fusion    
#>  7 P-0010177-T01-IM5    EML4        EML4-ALK fusion    
#>  8 P-0010604-T01-IM5    MLL3        MLL3-intragenic    
#>  9 P-0010794-T01-IM5    ERG         TMPRSS2-ERG fusion 
#> 10 P-0010794-T01-IM5    TMPRSS2     TMPRSS2-ERG fusion 
#> # … with 117 more rows
…
cna.relax : boolean specifying if shallow deletions and low level gains should be counted as deletions and amplifications respectively

spe.plat : boolean specifying if specific IMPACT platforms should be considered. When TRUE NAs will fill the cells for genes of patients that were not sequenced on that plaform

set.plat : character argument specifying which IMPACT platform the data should be reduced to if spe.plat is set to TRUE. Options are “341” and “410”. Default is NULL.

rm.empty : boolean specifying if columns with no events founds should be removed. Default is TRUE.

This function will return a binary matrix of genetics events with patients as rows and columns as genes. Along with a list of patients that weren’t found to have any events (if any).

patients <- as.character(unique(mut$Tumor_Sample_Barcode))[1:200]
bin.mut <- binmat(patients = patients,maf = mut,mut.type = "SOMATIC",SNP.only = FALSE,include.silent = FALSE, spe.plat = TRUE)
as.tbl(bin.mut)
#> # A tibble: 200 x 275
#>     TP53  EZH2  MDM2 IGF1R KEAP1 KDM5C  KRAS  TERT MAP2K1 NCOR1  DDR2  IDH1
#>    <dbl> <dbl> <dbl> <dbl> <dbl> <dbl> <dbl> <dbl>  <dbl> <dbl> <dbl> <dbl>
#>  1     1     1     1     1     1     1     0     0      0     0     0     0
#>  2     0     0     0     0     0     0     1     1      1     1     0     0
#>  3     1     0     0     0     0     0     0     0      0     0     1     1
#>  4     0     0     0     0     0     0     0     0      0     0     0     0
#>  5     1     0     0     0     0     0     0     0      0     0     0     0
#>  6     0     0     0     0     0     1     1     0      0     1     0     0
#>  7     1     0     0     0     0     0     1     0      0     0     0     0
#>  8     1     0     0     1     0     0     0     1      0     0     0     0
#>  9     0     0     0     0     0     0     0     0      0     0     0     0
#> 10     1     0     0     0     0     0     0     0      0     0     0     0
#> # … with 190 more rows, and 263 more variables: FIP1L1 <dbl>, EPHA5 <dbl>,
#> #   RASA1 <dbl>, RAD50 <dbl>, ESR1 <dbl>, HGF <dbl>, MLL3 <dbl>, RET <dbl>,
#> #   FLT1 <dbl>, BRCA2 <dbl>, RB1 <dbl>, PTPRT <dbl>, AR <dbl>, FOXL2 <dbl>,
#> #   FLT4 <dbl>, PIK3CA <dbl>, EP300 <dbl>, FBXW7 <dbl>, MPL <dbl>, RIT1 <dbl>,
#> #   NTRK1 <dbl>, FAT1 <dbl>, RICTOR <dbl>, TNFAIP3 <dbl>, ARID1B <dbl>,
#> #   GNAQ <dbl>, SYK <dbl>, TSC1 <dbl>, NOTCH1 <dbl>, PAK1 <dbl>, MLL2 <dbl>,
#> #   POLE <dbl>, TRAF7 <dbl>, NF1 <dbl>, GNA11 <dbl>, INSR <dbl>, AXL <dbl>,
#> #   ERG <dbl>, ARID1A <dbl>, MLH1 <dbl>, EGFR <dbl>, TBX3 <dbl>, MDC1 <dbl>,
#> #   RECQL4 <dbl>, SPEN <dbl>, NTRK2 <dbl>, STAG2 <dbl>, CREBBP <dbl>,
…
Similarly including fusions and CNAs:

bin.mut <- binmat(patients = patients,maf = mut,mut.type = "SOMATIC",SNP.only = FALSE,include.silent = FALSE, fusion = fusion, cna = cna, spe.plat = TRUE)
as.tbl(bin.mut)
#> # A tibble: 200 x 522
#>     TP53  EZH2  MDM2 IGF1R KEAP1 KDM5C  KRAS  TERT MAP2K1 NCOR1  DDR2  IDH1
#>    <dbl> <dbl> <dbl> <dbl> <dbl> <dbl> <dbl> <dbl>  <dbl> <dbl> <dbl> <dbl>
#>  1     1     1     1     1     1     1     0     0      0     0     0     0
#>  2     0     0     0     0     0     0     1     1      1     1     0     0
#>  3     1     0     0     0     0     0     0     0      0     0     1     1
#>  4     0     0     0     0     0     0     0     0      0     0     0     0
#>  5     1     0     0     0     0     0     0     0      0     0     0     0
#>  6     0     0     0     0     0     1     1     0      0     1     0     0
#>  7     1     0     0     0     0     0     1     0      0     0     0     0
#>  8     1     0     0     1     0     0     0     1      0     0     0     0
#>  9     0     0     0     0     0     0     0     0      0     0     0     0
#> 10     1     0     0     0     0     0     0     0      0     0     0     0
#> # … with 190 more rows, and 510 more variables: FIP1L1 <dbl>, EPHA5 <dbl>,
#> #   RASA1 <dbl>, RAD50 <dbl>, ESR1 <dbl>, HGF <dbl>, MLL3 <dbl>, RET <dbl>,
#> #   FLT1 <dbl>, BRCA2 <dbl>, RB1 <dbl>, PTPRT <dbl>, AR <dbl>, FOXL2 <dbl>,
#> #   FLT4 <dbl>, PIK3CA <dbl>, EP300 <dbl>, FBXW7 <dbl>, MPL <dbl>, RIT1 <dbl>,
#> #   NTRK1 <dbl>, FAT1 <dbl>, RICTOR <dbl>, TNFAIP3 <dbl>, ARID1B <dbl>,
#> #   GNAQ <dbl>, SYK <dbl>, TSC1 <dbl>, NOTCH1 <dbl>, PAK1 <dbl>, MLL2 <dbl>,
#> #   POLE <dbl>, TRAF7 <dbl>, NF1 <dbl>, GNA11 <dbl>, INSR <dbl>, AXL <dbl>,
#> #   ERG <dbl>, ARID1A <dbl>, MLH1 <dbl>, EGFR <dbl>, TBX3 <dbl>, MDC1 <dbl>,
#> #   RECQL4 <dbl>, SPEN <dbl>, NTRK2 <dbl>, STAG2 <dbl>, CREBBP <dbl>,
…
as.tbl(facet$out.cn)
#> # A tibble: 100 x 610
#>    `chr1.2488138-1… `chr1.11167550-… `chr1.14192672-… `chr1.15296019-…
#>               <dbl>            <dbl>            <dbl>            <dbl>
#>  1           0.0326           0.0326           0.0326           0.0326
#>  2          -0.0198          -0.0198          -0.0198          -0.0198
#>  3           0.0939           0.0939           0.0939           0.0939
#>  4          -0.155            0.0092           0.0092           0.0092
#>  5          -0.029           -0.029           -0.029           -0.029 
#>  6           0.0431           0.0431           0.0431           0.0431
#>  7           0.113            0.113            0.113            0.113 
#>  8          -0.408           -0.0501          -0.0501          -0.0501
#>  9          -0.0555          -0.0555          -0.0555          -0.0555
#> 10          -0.0391          -0.0391          -0.0391          -0.0391
#> # … with 90 more rows, and 606 more variables: `chr1.16199471-16235896` <dbl>,
#> #   `chr1.16235896-17345415` <dbl>, `chr1.17345415-22587878` <dbl>,
#> #   `chr1.22587878-30535114` <dbl>, `chr1.30535114-35013586` <dbl>,
#> #   `chr1.35013586-35468429` <dbl>, `chr1.35468429-36411737` <dbl>,
#> #   `chr1.36411737-45795044` <dbl>, `chr1.45795044-51434461` <dbl>,
#> #   `chr1.51434461-59564373` <dbl>, `chr1.59564373-65300293` <dbl>,
#> #   `chr1.65300293-65301840` <dbl>, `chr1.65301840-66042078` <dbl>,
#> #   `chr1.66042078-70742063` <dbl>, `chr1.70742063-82939537` <dbl>,
#> #   `chr1.82939537-96258925` <dbl>, `chr1.96258925-99589424` <dbl>,
…
