Data-processing • gnomeR
…
In the follwing sections we will present examples to process each of the datatypes in cbioportal.

Processing genetic data

Mutations

The most commmon type of genetic features used in genomic studies at MSKCC. The IMPACT sequencing panel consist of a curated list of genes that are known to have cancer related properties when altered. You can find a complete list of these genes and which platform they were added on in the impact_genes datafile. Note that the MAF files provided through the API embedded in this package and the one provided through raw download on the website are slightly different and we will thus present examples using both these datasets.

Processing raw mutation data

We included in gnomeR an example of raw downloaded MAF file directly from the website in the mut dataset. We show here an example selecting a random subset of 100 samples in the mut dataset:

as_tibble(mut)
#> # A tibble: 3,179 x 45
#>    Hugo_Symbol Entrez_Gene_Id Center NCBI_Build Chromosome Start_Position
#>    <fct>       <lgl>          <lgl>  <fct>      <fct>               <int>
#>  1 TP53        NA             NA     GRCh37     17                7577539
#>  2 EZH2        NA             NA     GRCh37     7               148523605
#>  3 MDM2        NA             NA     GRCh37     12               69222656
#>  4 IGF1R       NA             NA     GRCh37     15               99486153
#>  5 KEAP1       NA             NA     GRCh37     19               10602303
#>  6 KDM5C       NA             NA     GRCh37     X                53223386
#>  7 KRAS        NA             NA     GRCh37     12               25398284
#>  8 TERT        NA             NA     GRCh37     5                 1295228
#>  9 MAP2K1      NA             NA     GRCh37     15               66729153
#> 10 NCOR1       NA             NA     GRCh37     17               16046949
#> # … with 3,169 more rows, and 39 more variables: End_Position <int>,
#> #   Strand <fct>, Consequence <fct>, Variant_Classification <fct>,
#> #   Variant_Type <fct>, Reference_Allele <fct>, Tumor_Seq_Allele1 <fct>,
#> #   Tumor_Seq_Allele2 <fct>, dbSNP_RS <lgl>, dbSNP_Val_Status <lgl>,
#> #   Tumor_Sample_Barcode <fct>, Matched_Norm_Sample_Barcode <lgl>,
#> #   Match_Norm_Seq_Allele1 <lgl>, Match_Norm_Seq_Allele2 <lgl>,
#> #   Tumor_Validation_Allele1 <lgl>, Tumor_Validation_Allele2 <lgl>,
#> #   Match_Norm_Validation_Allele1 <lgl>, Match_Norm_Validation_Allele2 <lgl>,
#> #   Verification_Status <lgl>, Validation_Status <lgl>, Mutation_Status <chr>,
…
Similarly,

# df <- binmat(maf = dat$mut, SNP.only = TRUE, include.silent = TRUE, spe.plat = FALSE)
# kable(df[1:10, 1:10])

Fusions

Fusions are a particular genetic event where two genes merge to create a fusion gene which is a hybrid gene formed from the two previously independent genes. It can occur as a result of translocation, interstitial deletion, or chromosomal inversion. In IMPACT datasets these can be found either in their own file or aggregated in the MAF file for mutations. In general the file containing the fusions will be very similar to a MAF file, explaining why they may be found together. We show here how to process these alterations in both cases listed above. Note that fusions are particularly rare events and thus the resulting data is very sparse.

Processing raw fusion data

We included in gnomeR an example of raw downloaded MAF file directly from the website in the fusion dataset. We show here an example selecting the same random subset of 100 samples as in the previous section:

as_tibble(fusion)
#> # A tibble: 127 x 10
#>    Hugo_Symbol Entrez_Gene_Id Center Tumor_Sample_Ba… Fusion DNA_support
#>    <fct>                <int> <fct>  <fct>            <fct>  <fct>      
#>  1 PAX8                    NA MSKCC… P-0010011-T01-I… PAX8-… yes        
#>  2 TFE3                    NA MSKCC… P-0010977-T01-I… ASPSC… yes        
#>  3 ASPSCR1                 NA MSKCC… P-0010977-T01-I… ASPSC… yes        
#>  4 BRAF                    NA MSKCC… P-0010398-T01-I… OSBPL… yes        
#>  5 OSBPL9                  NA MSKCC… P-0010398-T01-I… OSBPL… yes        
#>  6 ALK                     NA MSKCC… P-0010177-T01-I… EML4-… yes        
#>  7 EML4                    NA MSKCC… P-0010177-T01-I… EML4-… yes        
#>  8 MLL3                    NA MSKCC… P-0010604-T01-I… MLL3-… yes        
#>  9 ERG                     NA MSKCC… P-0010794-T01-I… TMPRS… yes        
#> 10 TMPRSS2                 NA MSKCC… P-0010794-T01-I… TMPRS… yes        
#> # … with 117 more rows, and 4 more variables: RNA_support <fct>, Method <lgl>,
#> #   Frame <fct>, Comments <fct>
…
